\relax 
\providecommand*\new@tpo@label[2]{}
\catcode `"\active 
\pgfsyspdfmark {pgfid1}{4736286}{50644710}
\babel@aux{ngerman}{}
\@writefile{toc}{\contentsline {section}{\numberline {1}Vollversammlung}{1}}
\@writefile{toc}{\contentsline {section}{\numberline {2}Neue Shirts/Pullis}{1}}
\@writefile{toc}{\contentsline {section}{\numberline {3}Demo 28.11. (Flyer verteilen)}{1}}
\@writefile{toc}{\contentsline {section}{\numberline {4}Irish Night}{1}}
\pgfsyspdfmark {pgfid2}{4736286}{50644710}
\@writefile{toc}{\contentsline {section}{\numberline {5}Gl\IeC {\"u}hweinverkauf}{2}}
\@writefile{toc}{\contentsline {section}{\numberline {6}Sonstiges}{2}}
\@writefile{toc}{\contentsline {section}{\numberline {7}Termin der n\IeC {\"a}chsten Sitzung}{2}}
