\relax 
\providecommand\hyper@newdestlabel[2]{}
\providecommand*\new@tpo@label[2]{}
\catcode `"\active 
\providecommand\HyperFirstAtBeginDocument{\AtBeginDocument}
\HyperFirstAtBeginDocument{\ifx\hyper@anchor\@undefined
\global\let\oldcontentsline\contentsline
\gdef\contentsline#1#2#3#4{\oldcontentsline{#1}{#2}{#3}}
\global\let\oldnewlabel\newlabel
\gdef\newlabel#1#2{\newlabelxx{#1}#2}
\gdef\newlabelxx#1#2#3#4#5#6{\oldnewlabel{#1}{{#2}{#3}}}
\AtEndDocument{\ifx\hyper@anchor\@undefined
\let\contentsline\oldcontentsline
\let\newlabel\oldnewlabel
\fi}
\fi}
\global\let\hyper@last\relax 
\gdef\HyperFirstAtBeginDocument#1{#1}
\providecommand\HyField@AuxAddToFields[1]{}
\providecommand\HyField@AuxAddToCoFields[2]{}
\pgfsyspdfmark {pgfid1}{4736286}{50644710}
\babel@aux{ngerman}{}
\@writefile{toc}{\contentsline {section}{\numberline {1}Vollversammlung 27.11.}{1}{section.1}}
\@writefile{toc}{\contentsline {section}{\numberline {2}Demo 28.11.}{1}{section.2}}
\@writefile{toc}{\contentsline {section}{\numberline {3}Irish Night 29.11.}{1}{section.3}}
\@writefile{toc}{\contentsline {section}{\numberline {4}Gl\IeC {\"u}hweinverkauf}{1}{section.4}}
\@writefile{toc}{\contentsline {section}{\numberline {5}Metverkauf}{1}{section.5}}
\pgfsyspdfmark {pgfid2}{4736286}{50644710}
\@writefile{toc}{\contentsline {section}{\numberline {6}Weihnachtsfeier}{2}{section.6}}
\@writefile{toc}{\contentsline {section}{\numberline {7}T\IeC {\"a}tigkeitsplannung SS19}{2}{section.7}}
\@writefile{toc}{\contentsline {section}{\numberline {8}Sonstiges}{2}{section.8}}
\@writefile{toc}{\contentsline {section}{\numberline {9}Termin der n\IeC {\"a}chsten Sitzung}{2}{section.9}}
