\babel@toc {ngerman}{}
\contentsline {section}{\numberline {1}Begr\IeC {\"u}\IeC {\ss }ung}{2}% 
\contentsline {section}{\numberline {2}Feststellung der Beschlussf\IeC {\"a}higkeit}{2}% 
\contentsline {section}{\numberline {3}Bericht des Kassierers und der Kassenpr\IeC {\"u}fer}{2}% 
\contentsline {section}{\numberline {4}Entlastung des 1. und 2. Vorstands}{2}% 
\contentsline {section}{\numberline {5}Entlastung Kassierer}{2}% 
\contentsline {section}{\numberline {6}Neuwahl des 1. und 2. Vorstand}{2}% 
\contentsline {section}{\numberline {7}Neuwahl des Kassierers}{2}% 
\contentsline {section}{\numberline {8}Neuwahl der Kassenpr\IeC {\"u}fer}{2}% 
\contentsline {section}{\numberline {9}Neuwahl des \IeC {\"O}ffentlichkeitsbeauftragter}{3}% 
\contentsline {section}{\numberline {10}Neuwahl des Schriftf\IeC {\"u}hrers}{3}% 
\contentsline {section}{\numberline {11}Stand Up}{3}% 
\contentsline {section}{\numberline {12}Verlegung des Spieleabend}{3}% 
\contentsline {section}{\numberline {13}T\IeC {\"a}tigkeitsplannung}{3}% 
\contentsline {section}{\numberline {14}Raum G2 0.36}{3}% 
\contentsline {section}{\numberline {15}Sonstiges}{3}% 
\contentsline {section}{\numberline {16}Anwesenheit}{4}% 
